Tidyr & Dplyr
…
Fig1. - http://garrettgman.github.io/tidying/

Multiples variables en una columna

## # A tibble: 14,149 x 20
##      iso2  year   m_04   m_514   m_014  m_1524  m_2534  m_3544 m_4554
##    <fctr> <int>  <int>   <int>   <int>   <int>   <int>   <int>  <int>
## 1      AD  1950    318     559     877     565     422     407    319
## 2      AE  1950   6106    8836   14942    6582    4808    3506   2568
## 3      AF  1950 735627 1058402 1794029  808665  594710  431745 299558
## 4      AG  1950   3532    5750    9282    4215    3215    2652   1888
## 5      AI  1950    391     636    1027     466     356     293    209
## 6      AL  1950  87562  152362  239924  114551   75414   62280  44110
## 7      AM  1950  73041  144988  218029  156219   56147   64296  51775
## 8      AN  1950   8449   11325   19774    9661    8417    7163   4428
## 9      AO  1950 350929  499288  850217  387645  293129  214636 146401
## 10     AR  1950 992312 1667697 2660009 1598538 1422153 1232732 956341
## # ... with 14,139 more rows, and 11 more variables: m_5564 <int>,
## #   m_65 <int>, f_04 <int>, f_514 <int>, f_014 <int>, f_1524 <int>,
## #   f_2534 <int>, f_3544 <int>, f_4554 <int>, f_5564 <int>, f_65 <int>
…
Nombre de las variables en las celdas

## # A tibble: 22 x 34
##     year month element     1     2     3     4     5     6     7     8
##    <int> <int>   <chr> <int> <int> <int> <int> <int> <int> <int> <int>
## 1   2010     1    tmax    NA    NA    NA    NA    NA    NA    NA    NA
## 2   2010     1    tmin    NA    NA    NA    NA    NA    NA    NA    NA
## 3   2010     2    tmax    NA   273   241    NA    NA    NA    NA    NA
## 4   2010     2    tmin    NA   144   144    NA    NA    NA    NA    NA
## 5   2010     3    tmax    NA    NA    NA    NA   321    NA    NA    NA
## 6   2010     3    tmin    NA    NA    NA    NA   142    NA    NA    NA
## 7   2010     4    tmax    NA    NA    NA    NA    NA    NA    NA    NA
## 8   2010     4    tmin    NA    NA    NA    NA    NA    NA    NA    NA
## 9   2010     5    tmax    NA    NA    NA    NA    NA    NA    NA    NA
## 10  2010     5    tmin    NA    NA    NA    NA    NA    NA    NA    NA
## # ... with 12 more rows, and 23 more variables: 9 <chr>, 10 <int>,
## #   11 <int>, 12 <chr>, 13 <int>, 14 <int>, 15 <int>, 16 <int>, 17 <int>,
## #   18 <chr>, 19 <chr>, 20 <chr>, 21 <chr>, 22 <chr>, 23 <int>, 24 <chr>,
## #   25 <int>, 26 <int>, 27 <int>, 28 <int>, 29 <int>, 30 <int>, 31 <int>

gather()

Pasa de un formato ancho a un formato largo.

popul <- population %>% 
                    gather(demo, cases,  m_04:f_65, na.rm = F)

## # A tibble: 254,682 x 4
##      iso2  year  demo  cases
##    <fctr> <int> <chr>  <int>
## 1      AD  1950  m_04    318
## 2      AE  1950  m_04   6106
## 3      AF  1950  m_04 735627
## 4      AG  1950  m_04   3532
## 5      AI  1950  m_04    391
## 6      AL  1950  m_04  87562
## 7      AM  1950  m_04  73041
## 8      AN  1950  m_04   8449
## 9      AO  1950  m_04 350929
## 10     AR  1950  m_04 992312
## # ... with 254,672 more rows
…
sep_pol <- popul %>%
                 separate(demo, c("sex", "age"))

spread()

Pasa de un formato largo a uno ancho.

popul2 <- sep_pol %>%
              spread(sex,cases)

## # A tibble: 127,341 x 5
##      iso2  year   age     f     m
## *  <fctr> <int> <chr> <int> <int>
## 1      AD  1950   014   847   877
## 2      AD  1950    04   304   318
## 3      AD  1950  1524    NA   565
## 4      AD  1950  2534   457   422
## 5      AD  1950  3544   435   407
## 6      AD  1950  4554   352   319
## 7      AD  1950   514   543   559
## 8      AD  1950  5564   265   215
## 9      AD  1950    65   267   201
## 10     AD  1951   014   905   936
## # ... with 127,331 more rows

tbl_df(Clima)

## # A tibble: 22 x 34
##     year month element     1     2     3     4     5     6     7     8
##    <int> <int>   <chr> <int> <int> <int> <int> <int> <int> <int> <int>
## 1   2010     1    tmax    NA    NA    NA    NA    NA    NA    NA    NA
## 2   2010     1    tmin    NA    NA    NA    NA    NA    NA    NA    NA
## 3   2010     2    tmax    NA   273   241    NA    NA    NA    NA    NA
## 4   2010     2    tmin    NA   144   144    NA    NA    NA    NA    NA
## 5   2010     3    tmax    NA    NA    NA    NA   321    NA    NA    NA
## 6   2010     3    tmin    NA    NA    NA    NA   142    NA    NA    NA
## 7   2010     4    tmax    NA    NA    NA    NA    NA    NA    NA    NA
## 8   2010     4    tmin    NA    NA    NA    NA    NA    NA    NA    NA
## 9   2010     5    tmax    NA    NA    NA    NA    NA    NA    NA    NA
## 10  2010     5    tmin    NA    NA    NA    NA    NA    NA    NA    NA
## # ... with 12 more rows, and 23 more variables: 9 <chr>, 10 <int>,
## #   11 <int>, 12 <chr>, 13 <int>, 14 <int>, 15 <int>, 16 <int>, 17 <int>,
## #   18 <chr>, 19 <chr>, 20 <chr>, 21 <chr>, 22 <chr>, 23 <int>, 24 <chr>,
## #   25 <int>, 26 <int>, 27 <int>, 28 <int>, 29 <int>, 30 <int>, 31 <int>
…
unite()

Unin entre dos o ms variables y dejar solo una

tbl_df(sep_pol)

## # A tibble: 254,682 x 5
##      iso2  year   sex   age  cases
## *  <fctr> <int> <chr> <chr>  <int>
## 1      AD  1950     m    04    318
## 2      AE  1950     m    04   6106
## 3      AF  1950     m    04 735627
## 4      AG  1950     m    04   3532
## 5      AI  1950     m    04    391
## 6      AL  1950     m    04  87562
## 7      AM  1950     m    04  73041
## 8      AN  1950     m    04   8449
## 9      AO  1950     m    04 350929
## 10     AR  1950     m    04 992312
## # ... with 254,672 more rows

Uni_pol <- sep_pol %>%
                   unite(union, year, age, iso2) 

## # A tibble: 254,682 x 3
##         union   sex  cases
## *       <chr> <chr>  <int>
## 1  1950_04_AD     m    318
## 2  1950_04_AE     m   6106
## 3  1950_04_AF     m 735627
## 4  1950_04_AG     m   3532
## 5  1950_04_AI     m    391
## 6  1950_04_AL     m  87562
## 7  1950_04_AM     m  73041
## 8  1950_04_AN     m   8449
## 9  1950_04_AO     m 350929
## 10 1950_04_AR     m 992312
## # ... with 254,672 more rows
…
tbl_df(Clima)

## # A tibble: 22 x 34
##     year month element     1     2     3     4     5     6     7     8
##    <int> <int>   <chr> <int> <int> <int> <int> <int> <int> <int> <int>
## 1   2010     1    tmax    NA    NA    NA    NA    NA    NA    NA    NA
## 2   2010     1    tmin    NA    NA    NA    NA    NA    NA    NA    NA
## 3   2010     2    tmax    NA   273   241    NA    NA    NA    NA    NA
## 4   2010     2    tmin    NA   144   144    NA    NA    NA    NA    NA
## 5   2010     3    tmax    NA    NA    NA    NA   321    NA    NA    NA
## 6   2010     3    tmin    NA    NA    NA    NA   142    NA    NA    NA
## 7   2010     4    tmax    NA    NA    NA    NA    NA    NA    NA    NA
## 8   2010     4    tmin    NA    NA    NA    NA    NA    NA    NA    NA
## 9   2010     5    tmax    NA    NA    NA    NA    NA    NA    NA    NA
## 10  2010     5    tmin    NA    NA    NA    NA    NA    NA    NA    NA
## # ... with 12 more rows, and 23 more variables: 9 <chr>, 10 <int>,
## #   11 <int>, 12 <chr>, 13 <int>, 14 <int>, 15 <int>, 16 <int>, 17 <int>,
## #   18 <chr>, 19 <chr>, 20 <chr>, 21 <chr>, 22 <chr>, 23 <int>, 24 <chr>,
## #   25 <int>, 26 <int>, 27 <int>, 28 <int>, 29 <int>, 30 <int>, 31 <int>
…
tbl_df(weather)

## # A tibble: 26,130 x 15
##    origin  year month   day  hour  temp  dewp humid wind_dir wind_speed
##     <chr> <dbl> <dbl> <int> <int> <dbl> <dbl> <dbl>    <dbl>      <dbl>
## 1     EWR  2013     1     1     0 37.04 21.92 53.97      230   10.35702
## 2     EWR  2013     1     1     1 37.04 21.92 53.97      230   13.80936
## 3     EWR  2013     1     1     2 37.94 21.92 52.09      230   12.65858
## 4     EWR  2013     1     1     3 37.94 23.00 54.51      230   13.80936
## 5     EWR  2013     1     1     4 37.94 24.08 57.04      240   14.96014
## 6     EWR  2013     1     1     6 39.02 26.06 59.37      270   10.35702
## 7     EWR  2013     1     1     7 39.02 26.96 61.63      250    8.05546
## 8     EWR  2013     1     1     8 39.02 28.04 64.43      240   11.50780
## 9     EWR  2013     1     1     9 39.92 28.04 62.21      250   12.65858
## 10    EWR  2013     1     1    10 39.02 28.04 64.43      260   12.65858
## # ... with 26,120 more rows, and 5 more variables: wind_gust <dbl>,
## #   precip <dbl>, pressure <dbl>, visib <dbl>, time_hour <time>

tbl_df(flights)

## # A tibble: 336,776 x 19
##     year month   day dep_time sched_dep_time dep_delay arr_time
##    <int> <int> <int>    <int>          <int>     <dbl>    <int>
## 1   2013     1     1      517            515         2      830
## 2   2013     1     1      533            529         4      850
## 3   2013     1     1      542            540         2      923
## 4   2013     1     1      544            545        -1     1004
## 5   2013     1     1      554            600        -6      812
## 6   2013     1     1      554            558        -4      740
## 7   2013     1     1      555            600        -5      913
## 8   2013     1     1      557            600        -3      709
## 9   2013     1     1      557            600        -3      838
## 10  2013     1     1      558            600        -2      753
## # ... with 336,766 more rows, and 12 more variables: sched_arr_time <int>,
## #   arr_delay <dbl>, carrier <chr>, flight <int>, tailnum <chr>,
## #   origin <chr>, dest <chr>, air_time <dbl>, distance <dbl>, hour <dbl>,
## #   minute <dbl>, time_hour <time>
…
flights3 <-flights2 %>%
  inner_join(weather) %>%
  filter(wind_speed < 1000)

## Joining, by = c("origin", "month", "day", "hour")

tbl_df(flights3)

## # A tibble: 15,667 x 17
##    origin month   day  hour     delay     n  year  temp  dewp humid
##     <chr> <dbl> <int> <dbl>     <dbl> <int> <dbl> <dbl> <dbl> <dbl>
## 1     EWR     1     1     6  3.055556    18  2013 39.02 26.06 59.37
## 2     EWR     1     1     7 14.166667    12  2013 39.02 26.96 61.63
## 3     EWR     1     1     8  0.750000    20  2013 39.02 28.04 64.43
## 4     EWR     1     1     9  9.052632    19  2013 39.92 28.04 62.21
## 5     EWR     1     1    10  2.055556    18  2013 39.02 28.04 64.43
## 6     EWR     1     1    11  0.000000    11  2013 37.94 28.04 67.21
## 7     EWR     1     1    12  6.727273    22  2013 39.02 28.04 64.43
## 8     EWR     1     1    13 28.678571    28  2013 39.92 28.04 62.21
## 9     EWR     1     1    14 33.666667    18  2013 39.92 28.04 62.21
## 10    EWR     1     1    15 12.380952    21  2013 41.00 28.04 59.65
## # ... with 15,657 more rows, and 7 more variables: wind_dir <dbl>,
## #   wind_speed <dbl>, wind_gust <dbl>, precip <dbl>, pressure <dbl>,
## #   visib <dbl>, time_hour <time>
…
